<svg xmlns="http://www.w3.org/2000/svg" width="26" height="26" viewBox="0 0 26 26">
  <defs>
    <style>
      .prefix__cls { fill: #95989a }
    </style>
  </defs>
  <g transform="translate(24753 9603)">
    <path
      fill="none"
      d="M0 0H26V26H0z"
      transform="translate(-24753 -9603)"
    />
    <g data-name="Properties-icon" transform="translate(-24749 -9597)">
      <g data-name="Group 12">
        <path
          class="prefix__cls"
          d="M72.125 120.939l-6.418 5.513a.166.166 0 0 1 0 .035.166.166 0 0 0 0 .035v5.578a.735.735 0 0 0 .72.75h4.286v-4.466h2.858v4.466h4.286a.735.735 0 0 0 .72-.75v-5.589a.17.17 0 0 0-.011-.07z"
          data-name="Path 45"
          transform="translate(-63.127 -117.854)"
        />
        <path
          class="prefix__cls"
          d="M17.875 54.264l-2.444-2.116V47.4a.367.367 0 0 0-.1-.27.337.337 0 0 0-.259-.1h-2.147a.336.336 0 0 0-.26.1.366.366 0 0 0-.1.271v2.268L9.842 47.29a1.341 1.341 0 0 0-1.7 0L.12 54.264a.343.343 0 0 0-.12.25.386.386 0 0 0 .078.274l.692.861a.375.375 0 0 0 .24.125.4.4 0 0 0 .268-.081L9 48.984l7.721 6.716a.335.335 0 0 0 .24.081h.034a.376.376 0 0 0 .24-.125l.692-.86a.387.387 0 0 0 .068-.278.344.344 0 0 0-.12-.254z"
          data-name="Path 46"
          transform="translate(.002 -46.988)"
        />
      </g>
    </g>
  </g>
</svg>